(footprint "SW_SPDT_CL-SB-12B-0X" (version 20210722) (generator pcbnew) (layer "F.Cu")
  (tedit 6106CEA6)
  (fp_text reference "REF**" (at -2.54 -3.175 unlocked) (layer "F.SilkS")
    (effects (font (size 1 1) (thickness 0.15)))
    (tstamp 179f3799-27fc-41e7-ae8d-c3f757a9c5f0)
  )
  (fp_text value "SW_SPDT_CL-SB-12B-0X" (at 0 3.81 unlocked) (layer "F.Fab")
    (effects (font (size 1 1) (thickness 0.15)))
    (tstamp 5ead250e-0001-48ec-a33a-e6031ba915bc)
  )
  (fp_text user "${REFERENCE}" (at -2.54 -3.175 unlocked) (layer "F.Fab")
    (effects (font (size 1 1) (thickness 0.15)))
    (tstamp c68b2767-c3b7-4ef9-a2f6-9ddaab82ab2d)
  )
  (fp_rect (start -4.5 -2) (end 4.5 2) (layer "F.SilkS") (width 0.12) (fill none) (tstamp 7e6c9992-05e6-461e-86cb-12a1b990054f))
  (fp_circle (center -4 3) (end -3.7 3) (layer "F.SilkS") (width 0.12) (fill solid) (tstamp 1ecc2695-a5a1-4745-b74c-f7ebc3bb7002))
  (fp_rect (start -5 -2.5) (end 5 2.5) (layer "F.CrtYd") (width 0.05) (fill none) (tstamp 3543c063-3006-484c-868b-ba20a1161957))
  (fp_rect (start -1.75 -0.75) (end 1.75 0.75) (layer "F.Fab") (width 0.1) (fill none) (tstamp 6aae339d-0fe0-4e58-abf1-0642095ff6e2))
  (fp_rect (start -4.25 -1.75) (end 4.25 1.75) (layer "F.Fab") (width 0.1) (fill none) (tstamp 7bf7ad83-5047-4965-acc5-af8fd04f2c52))
  (fp_rect (start -1.75 -0.75) (end -0.25 0.75) (layer "F.Fab") (width 0.1) (fill solid) (tstamp aadfa32b-e9ca-4c49-b7d2-ef3221eaaa57))
  (pad "" np_thru_hole circle (at 3.4 0) (size 0.9 0.9) (drill 0.9) (layers *.Mask) (tstamp 475a5ffa-fa1a-478f-b858-261b967cd47f))
  (pad "" np_thru_hole circle (at -3.4 0) (size 0.9 0.9) (drill 0.9) (layers *.Mask) (tstamp b0061181-edab-4ef1-ad85-1942a87e77a5))
  (pad "1" smd rect (at -2.5 2.2) (size 1.2 1.4) (layers "F.Cu" "F.Paste" "F.Mask") (tstamp 9c2b6f18-bf5a-4baa-85ca-ed50d12a7960))
  (pad "2" smd rect (at 0 -2.2) (size 1.2 1.4) (layers "F.Cu" "F.Paste" "F.Mask") (tstamp 9c99c2d8-89bf-41a9-9cea-9da28a0b5bc9))
  (pad "3" smd rect (at 2.5 2.2) (size 1.2 1.4) (layers "F.Cu" "F.Paste" "F.Mask") (tstamp d536d8c1-0f8d-4d48-915e-63e6ead045c2))
)
